{
  "calendarSources": [
    {
      "type": "local",
      "color": "#1100ff",
      "directory": "zzz_data/full_calendar"
    }
  ],
  "defaultCalendar": 0,
  "recursiveLocal": false,
  "firstDay": 1,
  "initialView": {
    "desktop": "dayGridMonth",
    "mobile": "timeGrid3Days"
  },
  "timeFormat24h": true
}